…
    ## A LDA_VEM topic model with 10 topics.

The result is a model that I will use as a base in the next steps

1.2. Word-topic probability

``` r
# per topic per word probabilities
corpus20_22_topics <- tidy(corpus20_22_topicmodel, matrix = "beta")
corpus20_22_topics
```

    ## # A tibble: 280,720 × 3
    ##    topic term         beta
    ##    <int> <chr>       <dbl>
    ##  1     1 aaliyah 4.32e-223
    ##  2     2 aaliyah 3.37e-  8
    ##  3     3 aaliyah 3.87e-223
    ##  4     4 aaliyah 3.31e-224
    ##  5     5 aaliyah 7.49e-227
    ##  6     6 aaliyah 1.34e-223
    ##  7     7 aaliyah 1.86e-223
    ##  8     8 aaliyah 1.29e-220
    ##  9     9 aaliyah 1.17e-  3
    ## 10    10 aaliyah 5.69e-225
    ## # … with 280,710 more rows
…
    ## A LDA_VEM topic model with 10 topics.

The result is a model that I will use as a base in the next steps

2.2. Word-topic probability

``` r
# per topic per word probabilities
corpus10_19_topics <- tidy(corpus10_19_topicmodel, matrix = "beta")
corpus10_19_topics
```

    ## # A tibble: 532,290 × 3
    ##    topic term       beta
    ##    <int> <chr>     <dbl>
    ##  1     1 ª     0.0000214
    ##  2     2 ª     0.0000354
    ##  3     3 ª     0.0000287
    ##  4     4 ª     0.0000358
    ##  5     5 ª     0.0000114
    ##  6     6 ª     0.0000573
    ##  7     7 ª     0.0000613
    ##  8     8 ª     0.0000817
    ##  9     9 ª     0.0000447
    ## 10    10 ª     0.0000488
    ## # … with 532,280 more rows
…
    ## A LDA_VEM topic model with 10 topics.

The result is a model that I will use as a base in the next steps

3.2. Word-topic probability

``` r
# per topic per word probabilities
corpus00_09_topics <- tidy(corpus00_09_topicmodel, matrix = "beta")
corpus00_09_topics
```

    ## # A tibble: 590,790 × 3
    ##    topic term       beta
    ##    <int> <chr>     <dbl>
    ##  1     1 à     1.39e- 18
    ##  2     2 à     5.61e-  6
    ##  3     3 à     1.37e-154
    ##  4     4 à     1.02e- 23
    ##  5     5 à     5.34e-151
    ##  6     6 à     1.16e- 45
    ##  7     7 à     5.48e-  6
    ##  8     8 à     1.19e- 20
    ##  9     9 à     1.36e-159
    ## 10    10 à     6.52e-165
    ## # … with 590,780 more rows
…
    ## A LDA_VEM topic model with 10 topics.

The result is a model that I will use as a base in the next steps

4.2. Word-topic probability

``` r
# per topic per word probabilities
corpus90_99_topics <- tidy(corpus90_99_topicmodel, matrix = "beta")
corpus90_99_topics
```

    ## # A tibble: 563,280 × 3
    ##    topic term       beta
    ##    <int> <chr>     <dbl>
    ##  1     1 a­     1.40e- 23
    ##  2     2 a­     5.35e-184
    ##  3     3 a­     3.68e-185
    ##  4     4 a­     1.09e-184
    ##  5     5 a­     4.65e-  6
    ##  6     6 a­     7.42e-189
    ##  7     7 a­     9.30e-190
    ##  8     8 a­     4.17e-184
    ##  9     9 a­     1.46e-189
    ## 10    10 a­     4.76e- 18
    ## # … with 563,270 more rows
…
    ## A LDA_VEM topic model with 10 topics.

The result is a model that I will use as a base in the next steps

5.2. Word-topic probability

``` r
# per topic per word probabilities
corpus80_89_topics <- tidy(corpus80_89_topicmodel, matrix = "beta")
corpus80_89_topics
```

    ## # A tibble: 356,320 × 3
    ##    topic term                    beta
    ##    <int> <chr>                  <dbl>
    ##  1     1 aaacoipninoiolablo 8.52e- 47
    ##  2     2 aaacoipninoiolablo 8.89e-227
    ##  3     3 aaacoipninoiolablo 1.30e- 19
    ##  4     4 aaacoipninoiolablo 7.77e-  6
    ##  5     5 aaacoipninoiolablo 4.69e-224
    ##  6     6 aaacoipninoiolablo 1.50e-227
    ##  7     7 aaacoipninoiolablo 1.32e-230
    ##  8     8 aaacoipninoiolablo 4.42e- 18
    ##  9     9 aaacoipninoiolablo 7.66e- 86
    ## 10    10 aaacoipninoiolablo 5.54e-224
    ## # … with 356,310 more rows
…
    ## A LDA_VEM topic model with 10 topics.

The result is a model that I will use as a base in the next steps

6.2. Word-topic probability

``` r
# per topic per word probabilities
corpus69_79_topics <- tidy(corpus69_79_topicmodel, matrix = "beta")
corpus69_79_topics
```

    ## # A tibble: 437,400 × 3
    ##    topic term       beta
    ##    <int> <chr>     <dbl>
    ##  1     1 aaa   1.65e-  6
    ##  2     2 aaa   4.07e-195
    ##  3     3 aaa   4.49e- 25
    ##  4     4 aaa   1.09e- 65
    ##  5     5 aaa   1.78e-  5
    ##  6     6 aaa   3.88e-193
    ##  7     7 aaa   4.25e-  7
    ##  8     8 aaa   5.10e- 36
    ##  9     9 aaa   2.75e-197
    ## 10    10 aaa   3.65e-160
    ## # … with 437,390 more rows
…
