…
**Data frame corpus 1990 to 1999**

``` r
#Data frame
tidy_corpus90_99 <- tidy_corpus_all$tidy_corpus90_99

#Visualization
sample_n(tidy_corpus90_99, 100)
```

    ## # A tibble: 100 × 3
    ##    year  id                    word       
    ##    <chr> <chr>                 <chr>      
    ##  1 1997  Y1997_dxvxnrxy.txt    volume     
    ##  2 1992  JY_1992_schxmm.txt    perceptions
    ##  3 1996  JY_1996_wxlf.txt      struck     
    ##  4 1991  Y1991_xmxry.txt       groups     
    ##  5 1998  JY_1998_fxwcxtt.txt   determine  
    ##  6 1995  JY_1995_schrxw.txt    differed   
    ##  7 1992  JY_1992_mccxrthxy.txt teacher    
    ##  8 1996  Y1996_rxxnkxng.txt    one        
    ##  9 1994  Y1994_brxck.txt       finding    
    ## 10 1999  JY_1999_chrxstxx.txt  peers      
    ## # … with 90 more rows

**Data frame corpus 2000 to 2010**

``` r
#Data frame
tidy_corpus00_09 <- tidy_corpus_all$tidy_corpus00_09

#Visualization
sample_n(tidy_corpus00_09, 100)
```

    ## # A tibble: 100 × 3
    ##    year  id                  word      
    ##    <chr> <chr>               <chr>     
    ##  1 2004  JY_2004_lx.txt      learned   
    ##  2 2001  Y2001_bxrr.txt      chavan    
    ##  3 2007  Y2007_Hxnxs.txt     growing   
    ##  4 2009  Y2009_dxxlxy.txt    annual    
    ##  5 2005  JY_2005_xx.txt      helpful   
    ##  6 2000  JY_2000_mxllxr.txt  remained  
    ##  7 2007  Y2007_Dxmxcx.txt    quo       
    ##  8 2008  Y2008_dxffy.txt     understand
    ##  9 2002  JY_2002_sxmxrx.txt  deeply    
    ## 10 2003  Y2003_Mxsxnthxl.txt seatwork  
    ## # … with 90 more rows

**Data frame corpus 2010 to 2019**

``` r
#Data frame
tidy_corpus10_19 <- tidy_corpus_all$tidy_corpus10_19

#Visualization
sample_n(tidy_corpus10_19, 100)
```

    ## # A tibble: 100 × 3
    ##    year  id                    word         
    ##    <chr> <chr>                 <chr>        
    ##  1 2012  JY_2012_chrxst.txt    strategies   
    ##  2 2018  JY_2018_pxrry.txt     social       
    ##  3 2019  JY_2019_hxffmxn.txt   allowed      
    ##  4 2014  JY_2014_hxnxyfxrd.txt improving    
    ##  5 2017  JY_2017_mxsxs.txt     language     
    ##  6 2013  Y2013_lxxbfrxxnd.txt  percent      
    ##  7 2019  Y2019_cxppxllx.txt    constructed  
    ##  8 2018  JY_2018_kxxhnx.txt    first        
    ##  9 2016  Y2016_Edmxstxn.txt    opportunities
    ## 10 2011  JY_2011_nxxmxn.txt    instructional
    ## # … with 90 more rows

**Data frame corpus 2020 to 2022**

``` r
#Data frame 
tidy_corpus20_22 <- tidy_corpus_all$tidy_corpus20_22

#Visualization
sample_n(tidy_corpus20_22, 100)
```

    ## # A tibble: 100 × 3
    ##    year  id                     word            
    ##    <chr> <chr>                  <chr>           
    ##  1 2022  JY_2022_mxllxr.txt     allegedly       
    ##  2 2020  Y2020_lxmmxrt.txt      teaching        
    ##  3 2021  Y2021_jxrdxn.txt       transformational
    ##  4 2020  JY_2020_yxxn.txt       world           
    ##  5 2021  JY_2021_lxwrxncx.txt   resemble        
    ##  6 2021  JY_2021_lxvxnx.txt     others          
    ##  7 2021  JY_2021_lxwrxncx.txt   real            
    ##  8 2020  JY_2020_nxxgxbxxxr.txt pronunciation   
    ##  9 2022  JY_2022_jxcxbsxn.txt   contributes     
    ## 10 2020  Y2020_pxrclx.txt       reading         
    ## # … with 90 more rows
…
- Master data frame

``` r
# Combining data frames
master_tidy_corpus <- bind_rows(tidy_corpus69_79, tidy_corpus80_89, tidy_corpus90_99, tidy_corpus00_09 , tidy_corpus10_19, tidy_corpus20_22)

#generalities
## word count
head(master_tidy_corpus %>% 
    count(word, sort = TRUE), 30)
```

    ## # A tibble: 30 × 2
    ##    word          n
    ##    <chr>     <int>
    ##  1 reading  151923
    ##  2 students  96993
    ##  3 literacy  62494
    ##  4 children  61047
    ##  5 research  59529
    ##  6 teachers  54463
    ##  7 one       46639
    ##  8 study     45779
    ##  9 teacher   43348
    ## 10 language  41600
    ## # … with 20 more rows
…
