…
    ## # A tibble: 6 × 2
    ##   id               word        
    ##   <chr>            <chr>       
    ## 1 J1_2010_bxxn.txt reading     
    ## 2 J1_2010_bxxn.txt first       
    ## 3 J1_2010_bxxn.txt in          
    ## 4 J1_2010_bxxn.txt pennsylvania
    ## 5 J1_2010_bxxn.txt achievement 
    ## 6 J1_2010_bxxn.txt findings

``` r
tidy_corpus10.19
```

    ## # A tibble: 2,005,110 × 2
    ##    id               word        
    ##    <chr>            <chr>       
    ##  1 J1_2010_bxxn.txt reading     
    ##  2 J1_2010_bxxn.txt first       
    ##  3 J1_2010_bxxn.txt in          
    ##  4 J1_2010_bxxn.txt pennsylvania
    ##  5 J1_2010_bxxn.txt achievement 
    ##  6 J1_2010_bxxn.txt findings    
    ##  7 J1_2010_bxxn.txt after       
    ##  8 J1_2010_bxxn.txt five        
    ##  9 J1_2010_bxxn.txt years       
    ## 10 J1_2010_bxxn.txt rita        
    ## # … with 2,005,100 more rows
…
