…
- Generalities

``` r
## word count
head(master_tidy_corpus %>% 
    count(word, sort = TRUE), 30)
```

    ## # A tibble: 30 × 2
    ##    word          n
    ##    <chr>     <int>
    ##  1 reading  151923
    ##  2 students  96993
    ##  3 literacy  62494
    ##  4 children  61047
    ##  5 research  59529
    ##  6 teachers  54463
    ##  7 study     45779
    ##  8 teacher   43348
    ##  9 language  41600
    ## 10 text      40838
    ## # … with 20 more rows
…
